<svg xmlns="http://www.w3.org/2000/svg" width="117" height="163" viewBox="0 0 117 163">
    <g fill="none" fill-rule="evenodd" opacity=".8" style="mix-blend-mode:multiply">
        <path fill="#010408" d="M44.63 27.007h-3.422l1.712-8.15 1.71 8.15zM15.903 13.563c0 3.04-.49 3.966-2.097 3.966h-2.269V9.654h2.27c1.626 0 2.096.877 2.096 3.91zM37.975 0L27.438 40.684l-5.435-15.97c2.305-1.657 4.435-4.462 4.435-11.15C26.438 7.247 25.008 0 13.863 0H1v43h10.536V27.184h.654L17.195 43h20.644l1.324-6.337h7.511L48 43H59L47.864 0h-9.889z"/>
        <path fill="#010408" d="M72.78 13.563c0 3.04-.487 3.966-2.082 3.966h-2.25V9.654h2.25c1.614 0 2.081.877 2.081 3.91zm6.051 11.152c2.285-1.658 4.397-4.463 4.397-11.152C83.228 7.248 81.81 0 70.758 0H58v43h10.448V27.184h.647L74.061 43H85l-6.169-18.285zM8.66 53.897h1.542c.89 0 1.308.452 1.502.831l.004.008c.628 1.19.628 4.813.628 7.723 0 2.947 0 6.614-.632 7.809-.195.381-.614.835-1.502.835H8.66V53.897zm8.893-3.771C16.363 48.784 14.32 47 10.33 47H1v31h9.329c3.989 0 6.033-1.783 7.224-3.125l.001-.001c2.467-2.79 2.455-7.713 2.445-11.668l-.002-.706.002-.706c.01-3.955.022-8.878-2.446-11.668zM22 78h7V47h-7zM41.608 53.754c.838 0 1.625.319 1.709 2.63l.027.763H51l-.04-.827c-.141-2.917-1.115-5.32-2.826-6.958C46.47 47.817 44.214 47 41.608 47c-3.871 0-5.798 1.59-7.175 3.15-2.454 2.806-2.442 7.702-2.432 11.636l.001.714v.714c-.01 3.934-.023 8.83 2.433 11.637C35.811 76.408 37.74 78 41.608 78c5.769 0 9.353-3.693 9.353-9.639v-8.106H40.826v6.228h2.49v2.2c0 2.119-.929 2.564-1.708 2.564-.736 0-1.022-.266-1.25-.704-.71-1.318-.71-5.86-.71-8.043 0-2.182 0-6.723.715-8.054.223-.428.51-.692 1.245-.692M53 78h7V47h-7zM80 47H63v6.897h4.845V78h7.311V53.897H80V47M90.78 66.522h-2.559l1.28-6.132 1.28 6.132zM85.98 47L78 78h7.819l.95-4.581h5.463L93.183 78H101l-7.98-31h-7.04zM109.4 71.103V47H102v31h15v-6.897h-7.6M7.764 102.45l2.157-10.27 2.157 10.27H7.764zm-.588-18.402L0 111.75h5.804l.901-4.32h6.431l.902 4.32h5.804l-7.176-27.702h-5.49zM40.984 83l-2.583 19.78L35.007 83h-6.015L25.6 102.78 23.015 83H17l5.745 28h5.707L32 91.18 35.548 111h5.707L47 83h-6.016M52.435 101.6L54.5 91.22l2.064 10.382h-4.13zM51.872 83L45 111h5.558l.863-4.366h6.158l.864 4.366H64l-6.871-28h-5.257zM73.623 95.072h-2.265v-7.038h2.265c2.037 0 2.15 1.888 2.15 3.5 0 1.613-.113 3.538-2.15 3.538zm7.509-3.538c0-5.349-1.623-8.534-7.472-8.534H66v28h5.358v-10.894h1.775L76.414 111H82l-3.926-12.112c2.604-1.692 3.058-4.366 3.058-7.354zM93.794 104.746c-.352.71-1.053 1.22-2.068 1.22h-2.184V88.034h2.184c1.015 0 1.716.511 2.068 1.219.663 1.297.663 4.6.663 7.708 0 3.106 0 6.488-.663 7.785zm4.135-19.032C96.681 84.258 94.965 83 91.843 83H84v28h7.843c3.122 0 4.838-1.258 6.086-2.714 2.224-2.595 2.069-7.629 2.069-11.286 0-3.658.155-8.69-2.069-11.286zM112.383 94.917l-3.542-1.388c-1.632-.656-1.95-1.157-1.95-2.893 0-.925.12-1.503.478-1.966.317-.424.835-.734 1.631-.734.836 0 1.314.271 1.632.696.478.616.478 1.503.478 2.468h5.651c0-2.778-.637-4.975-2.189-6.363C113.338 83.617 111.507 83 109 83c-2.149 0-3.86.618-5.213 1.737-1.712 1.427-2.547 3.547-2.547 6.093 0 4.28 1.194 5.747 4.059 6.903l3.581 1.427c2.03.81 2.468 1.272 2.468 3.895 0 1.118-.16 1.85-.558 2.314-.357.462-.914.695-1.79.695-.875 0-1.433-.31-1.75-.656-.519-.58-.598-1.389-.598-2.508H101c0 2.816.479 4.744 1.87 6.095 1.275 1.234 3.344 2.005 6.13 2.005 2.747 0 4.896-.85 6.17-2.045 1.472-1.388 1.83-3.316 1.83-6.093 0-4.974-1.035-6.518-4.617-7.945M76.13 121.35H75v2h1.13c.525 0 .87-.415.87-1s-.345-1-.87-1"/>
        <path fill="#010408" d="M77.1 127.134l-1.252-2.692h-.901v2.692h-1.252v-6.748h2.513c1.306 0 2.08.938 2.08 2.066 0 .948-.549 1.535-1.17 1.772l1.432 2.91H77.1zm-7.332-5.573h-2.973v1.583h2.53v1.175h-2.53v1.64h2.973v1.175h-4.225v-6.748h4.225v1.175zm-8.423 5.573H60.23l-2.54-4.142v4.142h-1.253v-6.748h1.117l2.54 4.132v-4.132h1.252v6.748zm-9.106 0h-1.117l-2.54-4.142v4.142H47.33v-6.748h1.117l2.54 4.132v-4.132h1.252v6.748zm-10.359 0h1.252v-6.748H41.88v6.748zm-5.224 0H35.61l-1.18-4.095-1.18 4.095h-1.045l-1.711-6.748h1.306l.99 4.256 1.172-4.256h.936l1.171 4.256 1-4.256h1.306l-1.72 6.748zM1 130h115v-12H1v12zM57 138.102L46.594 163h-5.637l10.424-23.52H38V135h19v3.102M69.481 148.97l3.437-5.97h5.836l-5.817 9.797L79 163h-5.855l-3.645-6.285L65.873 163H60l6.063-10.203L60.264 143h5.855l3.362 5.97"/>
        <path fill="#000" d="M90 40.5v.363h-.775V43h-.45v-2.137H88V40.5h2M90.686 40.5l.42 1.262c.057.185.156.49.208.686h.01c.053-.188.18-.583.273-.858l.37-1.09h.518l.164 2.5h-.401l-.053-1.194c-.015-.268-.033-.587-.042-.891h-.015c-.062.225-.123.426-.252.81l-.443 1.26h-.304l-.41-1.235c-.071-.236-.171-.597-.228-.83h-.02c-.01.293-.023.622-.04.898L90.387 43H90l.172-2.5h.514z"/>
        <g fill-rule="nonzero">
            <path fill="#4FAEB0" d="M90 9h9v9h-9z"/>
            <path fill="#4BA7A9" d="M99 9h9v9h-9z"/>
            <path fill="#4FAEB0" d="M99 18h9v9h-9z"/>
            <path fill="#51B1B3" d="M99 0h9v9h-9zM108 9h9v9h-9z"/>
        </g>
    </g>
</svg>
