<svg xmlns="http://www.w3.org/2000/svg" width="170" height="42" viewBox="0 0 170 42">
    <g fill="#070707" fill-rule="nonzero">
        <path d="M71.152 25.57a14.33 14.33 0 0 1-5.03 6.237A12.16 12.16 0 0 1 59.089 34C51.866 33.99 46.011 28.217 46 21.09 46 14.28 51.43 8 58.952 8 66.475 8 72 13.885 72 21.307c.003.65-.057 1.297-.179 1.935H53.3c.444 2.897 2.907 4.61 5.79 4.61 2.268 0 3.469-1.008 4.495-2.282h7.568zm-6.546-7.25c-.312-1.447-1.778-4.172-5.608-4.172-3.83 0-5.296 2.725-5.608 4.172h11.216zM102 2h7v33h-7zM124.49 8C133.615 8 138 14.99 138 20.998 138 27.006 133.616 34 124.49 34 115.362 34 111 27.01 111 20.998 111 14.986 115.367 8 124.49 8zm0 19.17c3.254 0 6.01-2.603 6.01-6.168s-2.756-6.168-6.01-6.168c-3.255 0-6.008 2.599-6.008 6.168 0 3.57 2.757 6.16 6.007 6.16v.008z"/>
        <path d="M160 9l-12.153 33h-7.692l3.846-9.5L135 9h7.749l4.853 14.357h.09L152.325 9zM0 9h8v8H0zM0 26h8v8H0zM86.329 9C95.328 9 99 15.916 99 21.907 99 27.9 95.328 35 86.329 35 77.329 35 73 28.01 73 21.998 73 15.986 77.325 9 86.329 9zm0 19.17c3.206 0 5.926-2.603 5.926-6.168s-2.72-6.168-5.926-6.168c-3.207 0-5.93 2.599-5.93 6.168 0 3.57 2.719 6.168 5.93 6.168z"/>
        <path d="M73 22h7v20h-7zM15 0h11.476c3.887 0 10.82 0 15.317 6.34C44.165 9.556 45 13.185 45 16.908 45 26.189 40.315 34 27.152 34h-12.11L15 0zm8.853 26.373h3.792c6.606 0 8.481-4.505 8.481-9.326 0-1.933-.417-4.366-1.67-6.295-1.032-1.516-2.81-3.125-6.744-3.125H23.87l-.017 18.746zM165.5 0a4.5 4.5 0 1 0 0 9 4.5 4.5 0 0 0 0-9zm0 8.272a3.772 3.772 0 1 1 0-7.544 3.772 3.772 0 0 1 0 7.544zm1.234-3.225c-.15-.161-.32-.3-.51-.411.353-.029.684-.182.934-.432.21-.243.32-.556.308-.876a1.316 1.316 0 0 0-.205-.737 1.049 1.049 0 0 0-.548-.452 3.468 3.468 0 0 0-1.094-.128h-1.995V6.73h.946V4.767h.194c.16-.008.322.01.477.054a.7.7 0 0 1 .288.193c.18.22.346.451.498.691l.682 1.024h1.136l-.576-.917a5.236 5.236 0 0 0-.527-.765h-.008zm-1.46-1.028h-.704V2.826h1.436c.136.02.262.085.358.185.086.109.13.244.123.383a.596.596 0 0 1-.094.353.514.514 0 0 1-.268.202c-.277.055-.56.079-.843.07h-.008z"/>
    </g>
</svg>
