<svg xmlns="http://www.w3.org/2000/svg" xmlns:xlink="http://www.w3.org/1999/xlink" width="84" height="149" viewBox="0 0 84 149">
    <defs>
        <path id="a" d="M0 .298h83.514V148.34H0z"/>
        <path id="c" d="M0 .298h83.514V148.34H0z"/>
    </defs>
    <g fill="none" fill-rule="evenodd" opacity=".8">
        <g transform="translate(0 .298)">
            <mask id="b" fill="#fff">
                <use xlink:href="#a"/>
            </mask>
            <path fill="#FFF" d="M68.297 98.517c-2.105 0-3.63-1.51-3.63-4.031 0-2.522 1.542-4.048 3.646-4.048 2.12 0 3.662 1.526 3.662 4.048 0 2.521-1.558 4.03-3.678 4.03zm2.398 45.487l-2.093.345-1.261-2.974h-.464l-.452 2.89h-1.986l1.296-8.206h2.355c1.868 0 2.998.737 2.998 2.307 0 1.297-.678 2.141-1.773 2.558l1.38 3.08zm-7.101.262h-4.972l1.297-8.207h4.876l-.25 1.617h-2.89l-.238 1.511h2.165v1.677h-2.427l-.285 1.785h2.985l-.261 1.617zm-8.375-2.748h-.57l-.429 2.748h-1.986l1.296-8.207h2.32c1.998 0 2.926.892 2.914 2.367-.012 1.998-1.44 3.092-3.545 3.092zm-7.399 2.903c-2.01 0-3.223-1.225-3.223-3.45 0-2.902 1.725-5.067 4.2-5.067 2.01 0 3.222 1.225 3.222 3.45 0 2.902-1.725 5.067-4.199 5.067zm-5.543-12.812l1.023-6.554h-2.213l.262-1.653h6.316v1.653H45.31l-1.034 6.554h-2zm1.868 12.657h-4.758l1.296-8.207h2.022l-1.035 6.482h2.475v1.725zm-5.603 0h-4.973l1.297-8.207h4.877l-.25 1.617h-2.89l-.238 1.511h2.165v1.677h-2.427l-.285 1.785h2.986l-.262 1.617zm-10.278.036l-1.439-7.97 2.117-.357.797 5.71 2.545-5.626h2l-4.116 8.243h-1.904zm-1.975-6.626H23.4l-.238 1.511h2.165v1.677h-2.427l-.285 1.785H25.6l-.263 1.617h-4.972l1.297-8.207h4.877l-.25 1.617zm-7.993-6.067l1.296-8.207h2.355c1.868 0 2.998.737 2.998 2.307 0 1.296-.678 2.141-1.772 2.558l1.38 3.08-2.094.345-1.26-2.973h-.465l-.452 2.89h-1.986zm.582 11.254c-.952.963-2.272 1.403-3.853 1.403h-2.296l1.296-8.207h2.07c2.438 0 4.056.975 4.056 3.437 0 1.428-.464 2.57-1.273 3.367zm-1.32-16.095v1.724h-2.332l-.499 3.117H12.73l1.296-8.207h4.77l-.262 1.689H15.75l-.262 1.677h2.07zM13.02 87.274h2.698l2.811 8.368 2.795-8.368h2.65l.85 11.082h-2.119l-.594-8.094-2.795 8.126h-1.863l-2.81-8.126-.562 8.094h-1.911l.85-11.082zm51.098 36.128h2.07c2.438 0 4.056.975 4.056 3.437 0 1.428-.464 2.57-1.273 3.366-.951.964-2.272 1.404-3.853 1.404H62.82l1.296-8.207zm-7.708 0h1.903l2.022 4.532.702-4.532h1.843l-1.296 8.207H59.99l-2.248-4.96-.785 4.96h-1.843l1.296-8.207zm-7.114-17.654h1.392l-.916 5.745H48.38l.915-5.745zm-6.79-11.262c0-2.522 1.51-4.048 3.533-4.048 2.33 0 3.373 1.75 3.373 3.951 0 .16-.016.354-.016.466h-4.979c.097 1.51.9 2.168 2.088 2.168.996 0 1.815-.369 2.666-.964l.225 1.51c-.835.579-1.847.948-3.1.948-2.168 0-3.79-1.237-3.79-4.031zm1.152 10.299c-.476 0-.856-.333-.856-.821 0-.487.38-.82.856-.82s.844.333.844.82c0 .488-.368.82-.844.82zm-.988.963h1.392l-.916 5.745h-1.391l.915-5.745zm-9.278 5.745l.69-4.353v-1.392h1.273l.071 1.273c.476-.737 1.19-1.392 1.999-1.392v1.415c-.88.084-1.642.56-2.13 1.19l-.511 3.26h-1.392zm.786 11.909h1.902l2.022 4.532.703-4.532h1.843l-1.296 8.207h-1.595l-2.247-4.96-.786 4.96H32.88l1.297-8.207zm16.95-19.438c0 .488-.369.82-.845.82s-.856-.332-.856-.82c0-.487.38-.82.856-.82s.845.333.845.82zm2.82 6.59c.665 0 1.225-.25 1.843-.643v1.095c-.666.404-1.26.606-2.105.606-1.356 0-2.343-.785-2.343-2.367 0-2.164 1.344-3.616 2.866-3.616 1.261 0 1.987.869 1.987 2.248 0 .333-.048.726-.108 1h-3.401v.261c0 .94.428 1.416 1.26 1.416zm3.639-12.198h-1.928v-5.075c0-.674-.29-1.14-.996-1.14-.61 0-1.204.385-1.767.98v5.235h-1.927v-7.758h1.638l.177 1.093c.723-.69 1.542-1.253 2.586-1.253 1.446 0 2.217.884 2.217 2.33v5.588zm2.522 7.333c.333 0 .583.047.833.107l.416-2.653 1.416-.238-1.13 7.197v1.391h-1.285l-.06-.844c-.522.547-1.094.963-1.772.963-.951 0-1.64-.725-1.64-2.046 0-2.462 1.557-3.877 3.222-3.877zm3.291-15.09l.24 1.574h-1.83v3.662c0 .626.289.963 1.027.963.225 0 .434-.016.61-.064l.242 1.622a5.415 5.415 0 0 1-1.22.129c-1.526 0-2.554-.563-2.554-2.329v-3.983H58.82v-1.575h1.093v-2.457l1.895-.288v2.745h1.59zM27.687 77.144V42.79l9.945-6.33v39.328l4.295 2.713 4.068-2.487V36.461l9.945 6.102v34.582l-14.013 8.588-14.24-8.588zm3.48 21.211l-.16-1.011c-.627.658-1.43 1.172-2.587 1.172-1.316 0-2.2-.803-2.2-2.152 0-1.88 1.542-2.699 4.674-3.004v-.225c0-.835-.481-1.156-1.333-1.156-.9 0-1.75.257-2.586.627l-.24-1.543c.899-.353 1.846-.626 3.083-.626 2.008 0 3.003.739 3.003 2.602v5.316h-1.654zm1.486 10.52h-3.402v.262c0 .94.429 1.416 1.262 1.416.666 0 1.225-.25 1.843-.643v1.095c-.666.404-1.26.606-2.105.606-1.356 0-2.344-.785-2.344-2.367 0-2.164 1.344-3.616 2.867-3.616 1.26 0 1.986.869 1.986 2.248 0 .333-.047.726-.107 1zm-3.211 14.37c2.01 0 3.223 1.226 3.223 3.45 0 2.903-1.725 5.068-4.199 5.068-2.01 0-3.223-1.226-3.223-3.45 0-2.902 1.724-5.067 4.199-5.067zm-4.508-12.93c.642 0 1.32-.25 1.926-.63v1.38a4.639 4.639 0 0 1-2.152.57c-1.951 0-3.283-1.225-3.283-3.485 0-2.784 1.772-5.008 4.222-5.008.975 0 1.677.286 2.225.714l-.44 1.403c-.5-.463-1.071-.773-1.797-.773-1.582 0-2.629 1.678-2.629 3.521 0 1.594.774 2.308 1.928 2.308zm15.226.095c.213 0 .38-.024.51-.06v1.142a4.84 4.84 0 0 1-1.022.095c-.952 0-1.498-.38-1.498-1.26a5 5 0 0 1 .047-.607l.452-2.83h-.773l.19-1.143h.761l.286-1.82 1.415-.226-.32 2.046h1.153v1.142H40.03l-.416 2.664c-.012.108-.024.25-.024.345 0 .334.178.512.57.512zm.546-17.275c0 1.67-1.429 2.666-3.1 2.666-.224 0-.433-.015-.625-.048-.193.145-.321.29-.321.418 0 .257.24.321 1.444.498l.996.096c1.59.225 2.586.723 2.586 1.912 0 1.67-1.83 2.601-4.08 2.601-2.103 0-3.693-.642-3.693-1.927 0-.723.498-1.285 1.46-1.831-.303-.24-.448-.53-.448-.835 0-.433.337-.851.98-1.237-.916-.433-1.462-1.237-1.462-2.265 0-1.686 1.381-2.746 3.116-2.746.883 0 1.638.257 2.2.723l1.895-.675.257 1.542-1.414.097c.146.305.21.658.21 1.011zm7.53 12.612v1.142h-1.2L46 113.48l-1.415.226 1.07-6.816h-.809l.179-1.142h.808l.18-1.059c.178-1.082.749-1.677 1.985-1.677.321 0 .536.024.714.048v1.106c-.166-.023-.333-.047-.56-.047-.463 0-.7.226-.796.773l-.142.856h1.023zm6.02 20.782v1.677h-2.427l-.286 1.784h2.986l-.262 1.618h-4.972l1.297-8.207h4.876l-.25 1.617h-2.89l-.237 1.511h2.164zM11.752 33.862l30.06-18.534 30.061 18.534v33.45l-7.684 4.52-.566-33.111-21.697-13.335-21.924 13.11v33.45l-8.25-4.634v-33.45zm71.535 7.571c.452-20.567 1.13-18.307-17.856-28.93C53.63 5.899 45.696.406 41.813.303V.297L41.757.3 41.7.298v.004c-3.882.104-11.816 5.597-23.619 12.2C-.904 23.127-.226 20.867.226 41.434.62 59.285 0 148.34 0 148.34h83.513s-.618-89.055-.225-106.907z" mask="url(#b)"/>
        </g>
        <path fill="#FFF" d="M30.655 106.89c-.547 0-1.023.56-1.26 1.392h2.08c.06-.857-.19-1.392-.82-1.392M67.34 129.611c.56-.559.857-1.356.857-2.414 0-1.428-.773-1.952-2.01-1.952h-.31l-.82 5.116h.298c.832 0 1.546-.31 1.986-.75M59.038 110.697c.416 0 .808-.286 1.296-.773l.429-2.712a1.713 1.713 0 0 0-.702-.131c-.916 0-1.773.916-1.773 2.557 0 .666.25 1.059.75 1.059M22.994 126.174c0-.678-.463-1-1.225-1h-.452l-.369 2.415h.405c1.046 0 1.641-.5 1.641-1.415M16.095 137.903h-.31l-.82 5.114h.297c.833 0 1.547-.309 1.986-.748.56-.56.857-1.357.857-2.416 0-1.427-.773-1.95-2.01-1.95M28.132 96.454c0 .562.353.9.947.9.659 0 1.285-.306 1.815-.836v-1.735c-2.232.273-2.762.932-2.762 1.67M68.297 92.326c-1.14 0-1.75 1.012-1.75 2.457 0 1.414.625 2.458 1.75 2.458 1.188 0 1.799-1.012 1.799-2.458 0-1.429-.643-2.457-1.8-2.457M28.597 130.527c1.225 0 2.01-1.796 2.01-3.64 0-1.153-.428-1.808-1.296-1.808-1.226 0-2.01 1.784-2.01 3.64 0 1.154.428 1.808 1.296 1.808M45.99 92.069c-.771 0-1.397.61-1.542 1.879h3.084c-.128-1.205-.61-1.879-1.542-1.879M67.912 137.831h-.452l-.369 2.415h.405c1.046 0 1.641-.5 1.641-1.416 0-.677-.464-.999-1.225-.999M48.665 137.736c-1.225 0-2.01 1.785-2.01 3.64 0 1.154.428 1.808 1.297 1.808 1.224 0 2.01-1.796 2.01-3.64 0-1.154-.428-1.808-1.297-1.808M54.09 106.89c-.548 0-1.024.56-1.261 1.392h2.08c.06-.857-.19-1.392-.82-1.392M35.583 99.441c0 .579.69.996 2.152.996 1.381 0 2.168-.466 2.168-1.044 0-.418-.337-.659-1.3-.803l-1.045-.129c-.53-.064-.77-.112-1.156-.192-.562.401-.819.77-.819 1.172M37.574 91.973c-.85 0-1.348.658-1.348 1.51 0 .802.514 1.413 1.348 1.413.852 0 1.366-.627 1.366-1.462s-.546-1.461-1.366-1.461M55.648 137.831h-.393l-.392 2.498h.416c1.011 0 1.558-.523 1.57-1.415.012-.714-.404-1.083-1.201-1.083"/>
        <g>
            <g transform="translate(0 .298)">
                <mask id="d" fill="#fff">
                    <use xlink:href="#c"/>
                </mask>
                <path fill="#000" d="M68.297 98.517c-2.105 0-3.63-1.51-3.63-4.031 0-2.522 1.542-4.048 3.646-4.048 2.12 0 3.662 1.526 3.662 4.048 0 2.521-1.558 4.03-3.678 4.03zm2.398 45.487l-2.093.345-1.261-2.974h-.464l-.452 2.89h-1.986l1.296-8.206h2.355c1.868 0 2.998.737 2.998 2.307 0 1.297-.678 2.141-1.773 2.558l1.38 3.08zm-7.101.262h-4.972l1.297-8.207h4.876l-.25 1.617h-2.89l-.238 1.511h2.165v1.677h-2.427l-.285 1.785h2.985l-.261 1.617zm-8.375-2.748h-.57l-.429 2.748h-1.986l1.296-8.207h2.32c1.998 0 2.926.892 2.914 2.367-.012 1.998-1.44 3.092-3.545 3.092zm-7.399 2.903c-2.01 0-3.223-1.225-3.223-3.45 0-2.902 1.725-5.067 4.2-5.067 2.01 0 3.222 1.225 3.222 3.45 0 2.902-1.725 5.067-4.199 5.067zm-5.543-12.812l1.023-6.554h-2.213l.262-1.653h6.316v1.653H45.31l-1.034 6.554h-2zm1.868 12.657h-4.758l1.296-8.207h2.022l-1.035 6.482h2.475v1.725zm-5.603 0h-4.973l1.297-8.207h4.877l-.25 1.617h-2.89l-.238 1.511h2.165v1.677h-2.427l-.285 1.785h2.986l-.262 1.617zm-10.278.036l-1.439-7.97 2.117-.357.797 5.71 2.545-5.626h2l-4.116 8.243h-1.904zm-1.975-6.626H23.4l-.238 1.511h2.165v1.677h-2.427l-.285 1.785H25.6l-.263 1.617h-4.972l1.297-8.207h4.877l-.25 1.617zm-7.993-6.067l1.296-8.207h2.355c1.868 0 2.998.737 2.998 2.307 0 1.296-.678 2.141-1.772 2.558l1.38 3.08-2.094.345-1.26-2.973h-.465l-.452 2.89h-1.986zm.582 11.254c-.952.963-2.272 1.403-3.853 1.403h-2.296l1.296-8.207h2.07c2.438 0 4.056.975 4.056 3.437 0 1.428-.464 2.57-1.273 3.367zm-1.32-16.095v1.724h-2.332l-.499 3.117H12.73l1.296-8.207h4.77l-.262 1.689H15.75l-.262 1.677h2.07zM13.02 87.274h2.698l2.811 8.368 2.795-8.368h2.65l.85 11.082h-2.119l-.594-8.094-2.795 8.126h-1.863l-2.81-8.126-.562 8.094h-1.911l.85-11.082zm51.098 36.128h2.07c2.438 0 4.056.975 4.056 3.437 0 1.428-.464 2.57-1.273 3.366-.951.964-2.272 1.404-3.853 1.404H62.82l1.296-8.207zm-7.708 0h1.903l2.022 4.532.702-4.532h1.843l-1.296 8.207H59.99l-2.248-4.96-.785 4.96h-1.843l1.296-8.207zm-7.114-17.654h1.392l-.916 5.745H48.38l.915-5.745zm-6.79-11.262c0-2.522 1.51-4.048 3.533-4.048 2.33 0 3.373 1.75 3.373 3.951 0 .16-.016.354-.016.466h-4.979c.097 1.51.9 2.168 2.088 2.168.996 0 1.815-.369 2.666-.964l.225 1.51c-.835.579-1.847.948-3.1.948-2.168 0-3.79-1.237-3.79-4.031zm1.152 10.299c-.476 0-.856-.333-.856-.821 0-.487.38-.82.856-.82s.844.333.844.82c0 .488-.368.82-.844.82zm-.988.963h1.392l-.916 5.745h-1.391l.915-5.745zm-9.278 5.745l.69-4.353v-1.392h1.273l.071 1.273c.476-.737 1.19-1.392 1.999-1.392v1.415c-.88.084-1.642.56-2.13 1.19l-.511 3.26h-1.392zm.786 11.909h1.902l2.022 4.532.703-4.532h1.843l-1.296 8.207h-1.595l-2.247-4.96-.786 4.96H32.88l1.297-8.207zm16.95-19.438c0 .488-.369.82-.845.82s-.856-.332-.856-.82c0-.487.38-.82.856-.82s.845.333.845.82zm2.82 6.59c.665 0 1.225-.25 1.843-.643v1.095c-.666.404-1.26.606-2.105.606-1.356 0-2.343-.785-2.343-2.367 0-2.164 1.344-3.616 2.866-3.616 1.261 0 1.987.869 1.987 2.248 0 .333-.048.726-.108 1h-3.401v.261c0 .94.428 1.416 1.26 1.416zm3.639-12.198h-1.928v-5.075c0-.674-.29-1.14-.996-1.14-.61 0-1.204.385-1.767.98v5.235h-1.927v-7.758h1.638l.177 1.093c.723-.69 1.542-1.253 2.586-1.253 1.446 0 2.217.884 2.217 2.33v5.588zm2.522 7.333c.333 0 .583.047.833.107l.416-2.653 1.416-.238-1.13 7.197v1.391h-1.285l-.06-.844c-.522.547-1.094.963-1.772.963-.951 0-1.64-.725-1.64-2.046 0-2.462 1.557-3.877 3.222-3.877zm3.291-15.09l.24 1.574h-1.83v3.662c0 .626.289.963 1.027.963.225 0 .434-.016.61-.064l.242 1.622a5.415 5.415 0 0 1-1.22.129c-1.526 0-2.554-.563-2.554-2.329v-3.983H58.82v-1.575h1.093v-2.457l1.895-.288v2.745h1.59zM27.687 77.144V42.79l9.945-6.33v39.328l4.295 2.713 4.068-2.487V36.461l9.945 6.102v34.582l-14.013 8.588-14.24-8.588zm3.48 21.211l-.16-1.011c-.627.658-1.43 1.172-2.587 1.172-1.316 0-2.2-.803-2.2-2.152 0-1.88 1.542-2.699 4.674-3.004v-.225c0-.835-.481-1.156-1.333-1.156-.9 0-1.75.257-2.586.627l-.24-1.543c.899-.353 1.846-.626 3.083-.626 2.008 0 3.003.739 3.003 2.602v5.316h-1.654zm1.486 10.52h-3.402v.262c0 .94.429 1.416 1.262 1.416.666 0 1.225-.25 1.843-.643v1.095c-.666.404-1.26.606-2.105.606-1.356 0-2.344-.785-2.344-2.367 0-2.164 1.344-3.616 2.867-3.616 1.26 0 1.986.869 1.986 2.248 0 .333-.047.726-.107 1zm-3.211 14.37c2.01 0 3.223 1.226 3.223 3.45 0 2.903-1.725 5.068-4.199 5.068-2.01 0-3.223-1.226-3.223-3.45 0-2.902 1.724-5.067 4.199-5.067zm-4.508-12.93c.642 0 1.32-.25 1.926-.63v1.38a4.639 4.639 0 0 1-2.152.57c-1.951 0-3.283-1.225-3.283-3.485 0-2.784 1.772-5.008 4.222-5.008.975 0 1.677.286 2.225.714l-.44 1.403c-.5-.463-1.071-.773-1.797-.773-1.582 0-2.629 1.678-2.629 3.521 0 1.594.774 2.308 1.928 2.308zm15.226.095c.213 0 .38-.024.51-.06v1.142a4.84 4.84 0 0 1-1.022.095c-.952 0-1.498-.38-1.498-1.26a5 5 0 0 1 .047-.607l.452-2.83h-.773l.19-1.143h.761l.286-1.82 1.415-.226-.32 2.046h1.153v1.142H40.03l-.416 2.664c-.012.108-.024.25-.024.345 0 .334.178.512.57.512zm.546-17.275c0 1.67-1.429 2.666-3.1 2.666-.224 0-.433-.015-.625-.048-.193.145-.321.29-.321.418 0 .257.24.321 1.444.498l.996.096c1.59.225 2.586.723 2.586 1.912 0 1.67-1.83 2.601-4.08 2.601-2.103 0-3.693-.642-3.693-1.927 0-.723.498-1.285 1.46-1.831-.303-.24-.448-.53-.448-.835 0-.433.337-.851.98-1.237-.916-.433-1.462-1.237-1.462-2.265 0-1.686 1.381-2.746 3.116-2.746.883 0 1.638.257 2.2.723l1.895-.675.257 1.542-1.414.097c.146.305.21.658.21 1.011zm7.53 12.612v1.142h-1.2L46 113.48l-1.415.226 1.07-6.816h-.809l.179-1.142h.808l.18-1.059c.178-1.082.749-1.677 1.985-1.677.321 0 .536.024.714.048v1.106c-.166-.023-.333-.047-.56-.047-.463 0-.7.226-.796.773l-.142.856h1.023zm6.02 20.782v1.677h-2.427l-.286 1.784h2.986l-.262 1.618h-4.972l1.297-8.207h4.876l-.25 1.617h-2.89l-.237 1.511h2.164zM11.752 33.862l30.06-18.534 30.061 18.534v33.45l-7.684 4.52-.566-33.111-21.697-13.335-21.924 13.11v33.45l-8.25-4.634v-33.45zm71.535 7.571c.452-20.567 1.13-18.307-17.856-28.93C53.63 5.899 45.696.406 41.813.303V.297L41.757.3 41.7.298v.004c-3.882.104-11.816 5.597-23.619 12.2C-.904 23.127-.226 20.867.226 41.434.62 59.285 0 148.34 0 148.34h83.513s-.618-89.055-.225-106.907z" mask="url(#d)"/>
            </g>
            <path fill="#000" d="M30.655 106.89c-.547 0-1.023.56-1.26 1.392h2.08c.06-.857-.19-1.392-.82-1.392M67.34 129.611c.56-.559.857-1.356.857-2.414 0-1.428-.773-1.952-2.01-1.952h-.31l-.82 5.116h.298c.832 0 1.546-.31 1.986-.75M59.038 110.697c.416 0 .808-.286 1.296-.773l.429-2.712a1.713 1.713 0 0 0-.702-.131c-.916 0-1.773.916-1.773 2.557 0 .666.25 1.059.75 1.059M22.994 126.174c0-.678-.463-1-1.225-1h-.452l-.369 2.415h.405c1.046 0 1.641-.5 1.641-1.415M16.095 137.903h-.31l-.82 5.114h.297c.833 0 1.547-.309 1.986-.748.56-.56.857-1.357.857-2.416 0-1.427-.773-1.95-2.01-1.95M28.132 96.454c0 .562.353.9.947.9.659 0 1.285-.306 1.815-.836v-1.735c-2.232.273-2.762.932-2.762 1.67M68.297 92.326c-1.14 0-1.75 1.012-1.75 2.457 0 1.414.625 2.458 1.75 2.458 1.188 0 1.799-1.012 1.799-2.458 0-1.429-.643-2.457-1.8-2.457M28.597 130.527c1.225 0 2.01-1.796 2.01-3.64 0-1.153-.428-1.808-1.296-1.808-1.226 0-2.01 1.784-2.01 3.64 0 1.154.428 1.808 1.296 1.808M45.99 92.069c-.771 0-1.397.61-1.542 1.879h3.084c-.128-1.205-.61-1.879-1.542-1.879M67.912 137.831h-.452l-.369 2.415h.405c1.046 0 1.641-.5 1.641-1.416 0-.677-.464-.999-1.225-.999M48.665 137.736c-1.225 0-2.01 1.785-2.01 3.64 0 1.154.428 1.808 1.297 1.808 1.224 0 2.01-1.796 2.01-3.64 0-1.154-.428-1.808-1.297-1.808M54.09 106.89c-.548 0-1.024.56-1.261 1.392h2.08c.06-.857-.19-1.392-.82-1.392M35.583 99.441c0 .579.69.996 2.152.996 1.381 0 2.168-.466 2.168-1.044 0-.418-.337-.659-1.3-.803l-1.045-.129c-.53-.064-.77-.112-1.156-.192-.562.401-.819.77-.819 1.172M37.574 91.973c-.85 0-1.348.658-1.348 1.51 0 .802.514 1.413 1.348 1.413.852 0 1.366-.627 1.366-1.462s-.546-1.461-1.366-1.461M55.648 137.831h-.393l-.392 2.498h.416c1.011 0 1.558-.523 1.57-1.415.012-.714-.404-1.083-1.201-1.083"/>
        </g>
    </g>
</svg>
