<svg xmlns="http://www.w3.org/2000/svg" width="238" height="427" viewBox="0 0 238 427">
    <g fill="none" fill-rule="evenodd">
        <path fill="#010408" d="M90.788 54.842h-6.962l3.48-16.548 3.482 16.548zm-58.44-27.3c0 6.172-.996 8.053-4.266 8.053h-4.616v-15.99h4.616c3.31 0 4.266 1.78 4.266 7.937zM77.25 0L55.813 82.615 44.76 50.187c4.687-3.365 9.02-9.062 9.02-22.645C53.779 14.72 50.872 0 28.2 0H2.034v87.319h21.432V55.202h1.33l10.181 32.117h41.994l2.694-12.87h15.28l2.693 12.87h22.38L97.364 0H77.249z"/>
        <path fill="#010408" d="M148.046 27.542c0 6.172-.989 8.053-4.233 8.053h-4.577v-15.99h4.577c3.284 0 4.233 1.78 4.233 7.937zm12.311 22.645c4.649-3.365 8.944-9.062 8.944-22.645C169.301 14.72 166.418 0 143.933 0h-25.95v87.319h21.253V55.202h1.316l10.103 32.117h22.251l-12.549-37.132z"/>
        <path fill="#FFF" d="M17.583 111.006h3.135c1.81 0 2.66.918 3.057 1.688l.008.016c1.277 2.416 1.277 9.773 1.277 15.683 0 5.983 0 13.43-1.285 15.857-.398.773-1.25 1.695-3.057 1.695h-3.135v-34.94zm18.09-7.659C33.252 100.622 29.095 97 20.977 97H2v62.95h18.977c8.114 0 12.273-3.62 14.695-6.346l.002-.001c5.02-5.666 4.993-15.662 4.973-23.695l-.003-1.433.003-1.433c.02-8.032.046-18.03-4.974-23.695zM45 159.95h14.24V97H45zM84.545 110.716c1.705 0 3.306.646 3.475 5.338l.056 1.55h15.574l-.081-1.679c-.288-5.923-2.27-10.802-5.75-14.128C94.434 98.659 89.844 97 84.545 97c-7.875 0-11.795 3.23-14.596 6.395-4.993 5.7-4.967 15.642-4.946 23.631l.002 1.45-.002 1.449c-.02 7.99-.047 17.933 4.951 23.63 2.798 3.164 6.72 6.396 14.59 6.396 11.736 0 19.026-7.5 19.026-19.574v-16.46H82.953v12.646h5.066v4.47c0 4.3-1.889 5.204-3.474 5.204-1.498 0-2.08-.539-2.542-1.43-1.446-2.676-1.446-11.898-1.446-16.331 0-4.432 0-13.654 1.455-16.356.454-.868 1.036-1.404 2.533-1.404M108 159.95h14.24V97H108zM162.581 97H128v14.006h9.856v48.945h14.872v-48.945h9.853V97M184.998 136.642h-5.206l2.603-12.451 2.603 12.451zM175.233 97L159 159.95h15.905l1.934-9.302h11.112l1.935 9.303h15.9L189.555 97h-14.322zM222.055 145.945V97H207v62.95h30.513v-14.005h-15.458M15.793 206.371l4.388-20.859 4.388 20.86h-8.776zM14.597 169L0 225.255h11.806l1.834-8.772h13.082l1.835 8.772h11.806L25.765 169H14.597zM83.789 169l-5.255 40.168L71.63 169H59.394l-6.903 40.168L47.236 169H35l11.687 56.859h11.61l7.216-40.248 7.216 40.248h11.61L96.025 169H83.789M107.124 206.772l4.202-21.082 4.2 21.082h-8.402zM105.979 169L92 225.859h11.306l1.756-8.866h12.526l1.758 8.866h11.304L116.672 169H105.98zM149.506 193.514H144.9v-14.292h4.606c4.145 0 4.374 3.834 4.374 7.108 0 3.276-.23 7.184-4.374 7.184zm15.275-7.184c0-10.862-3.302-17.33-15.2-17.33H134v56.859h10.9v-22.122h3.609l6.676 22.122h11.362l-7.985-24.596c5.296-3.436 6.219-8.865 6.219-14.933zM190.924 213.16c-.716 1.44-2.143 2.476-4.207 2.476h-4.444v-36.414h4.444c2.064 0 3.49 1.04 4.207 2.476 1.348 2.634 1.348 9.342 1.348 15.652 0 6.308 0 13.176-1.348 15.81zm8.41-38.65c-2.537-2.955-6.03-5.51-12.38-5.51H171v56.859h15.954c6.35 0 9.843-2.555 12.38-5.51 4.525-5.272 4.208-15.493 4.208-22.919 0-7.428.317-17.648-4.207-22.92zM228.155 193.2l-7.204-2.819c-3.32-1.332-3.968-2.349-3.968-5.874 0-1.88.243-3.054.972-3.993.646-.861 1.7-1.49 3.319-1.49 1.7 0 2.673.55 3.318 1.412.974 1.252.974 3.052.974 5.012h11.496c0-5.641-1.297-10.103-4.454-12.922-2.51-2.272-6.235-3.526-11.334-3.526-4.371 0-7.854 1.254-10.606 3.526-3.482 2.898-5.18 7.205-5.18 12.373 0 8.692 2.428 11.67 8.256 14.02l7.286 2.897c4.13 1.643 5.02 2.584 5.02 7.91 0 2.27-.324 3.758-1.135 4.698-.727.94-1.86 1.41-3.641 1.41-1.78 0-2.915-.627-3.562-1.331-1.053-1.176-1.215-2.82-1.215-5.092H205c0 5.717.973 9.632 3.805 12.376 2.593 2.505 6.801 4.072 12.469 4.072 5.588 0 9.959-1.726 12.55-4.153 2.994-2.818 3.723-6.734 3.723-12.373 0-10.101-2.104-13.236-9.392-16.134M152.564 246.422v4.062h2.297c1.07 0 1.771-.843 1.771-2.031 0-1.187-.7-2.03-1.77-2.03h-2.298z"/>
        <path fill="#FFF" d="M156.836 258.168l-2.547-5.466h-1.833v5.466h-2.547v-13.703h5.112c2.657 0 4.233 1.905 4.233 4.195 0 1.925-1.117 3.118-2.382 3.6l2.913 5.908h-2.95zM141.92 246.85h-6.046v3.215h5.148v2.387h-5.148v3.33h6.046v2.386h-8.594v-13.703h8.594v2.385zm-17.132 11.318h-2.272l-5.167-8.41v8.41h-2.547v-13.703h2.272l5.167 8.39v-8.39h2.547v13.703zm-18.524 0h-2.273l-5.167-8.41v8.41h-2.546v-13.703h2.272l5.167 8.39v-8.39h2.547v13.703zm-21.071 0h2.546v-13.703h-2.546v13.703zm-10.628 0h-2.126l-2.4-8.315-2.4 8.315h-2.125l-3.481-13.703h2.656l2.016 8.642 2.382-8.642h1.905l2.382 8.642 2.034-8.642h2.656l-3.499 13.703zm-72.53 5.82h233.93V239.62H2.036v24.368zM115.949 280.44L94.78 331H83.314l21.205-47.76H77.3v-9.099h38.65v6.3M141.338 302.51l6.992-12.123H160.2l-11.833 19.893L160.701 331h-11.91l-7.415-12.763L134 331H122.05l12.333-20.72-11.795-19.893h11.91l6.839 12.123"/>
        <path fill="#000" d="M183.077 82.242v.737H181.5v4.34h-.914v-4.34h-1.577v-.737h4.068M184.473 82.242l.852 2.563c.117.376.32.995.426 1.394h.02c.106-.383.365-1.185.554-1.743l.752-2.214h1.055l.333 5.077h-.816l-.106-2.424c-.031-.544-.069-1.193-.087-1.81h-.03a26.3 26.3 0 0 1-.513 1.644l-.901 2.559h-.62l-.833-2.506a41.83 41.83 0 0 1-.463-1.686h-.04c-.02.594-.048 1.263-.081 1.822l-.111 2.401h-.787l.35-5.077h1.046z"/>
        <g fill-rule="nonzero">
            <path fill="#B3B2B2" d="M183.077 18.276h18.308v18.276h-18.308z"/>
            <path fill="#AB7A28" d="M201.385 18.276h18.308v18.276h-18.308z"/>
            <path fill="#B3B2B2" d="M201.385 36.552h18.308v18.276h-18.308z"/>
            <path fill="#FFF" d="M201.385 0h18.308v18.276h-18.308zM219.692 18.276H238v18.276h-18.308z"/>
        </g>
        <g>
            <path fill="#FFF" fill-rule="nonzero" d="M4 374h162v53H4v-53zm19.667 6v13.667h13.666V380H23.667zm13.666 13.667v13.666H51v-13.666H37.333z"/>
            <path stroke="#FFF" stroke-width="2" d="M167 375h70v51h-70z"/>
            <path fill="#B3B2B2" fill-rule="nonzero" d="M10 393.667h13.667v13.667H10z"/>
            <path fill="#AB7A28" fill-rule="nonzero" d="M23.667 393.667h13.667v13.667H23.667z"/>
            <path fill="#B3B2B2" fill-rule="nonzero" d="M23.667 407.333h13.667V421H23.667z"/>
            <text fill="#000" fill-opacity=".87" font-family="DINAlternate-Bold, DIN Alternate" font-size="17" font-weight="bold" letter-spacing=".36" transform="translate(4 374)">
                <tspan x="61" y="22">R</tspan> <tspan x="71.728" y="22" letter-spacing="-.1">AR AWAR</tspan> <tspan x="139.825" y="22">D</tspan>
            </text>
            <text fill="#000" fill-opacity=".87" font-family="DINAlternate-Bold, DIN Alternate" font-size="21" font-weight="bold" letter-spacing=".9" transform="translate(4 374)">
                <tspan x="61" y="42">FINALIS</tspan> <tspan x="140.308" y="42">T</tspan>
            </text>
            <text fill="#FFF" font-family="DINAlternate-Bold, DIN Alternate" font-size="40" font-weight="bold" letter-spacing=".35" transform="translate(4 374)">
                <tspan x="171" y="41">2</tspan> <tspan x="190.549" y="41" letter-spacing="-.51">9</tspan> <tspan x="209.238" y="41" font-size="34" letter-spacing=".9">x</tspan>
            </text>
        </g>
    </g>
</svg>
