{
    "key": "group_5c585dc814a42",
    "title": "Archive Case studies",
    "fields": [
        {
            "key": "field_5c585ee374cce",
            "label": "Please Note",
            "name": "",
            "type": "message",
            "instructions": "",
            "required": 0,
            "conditional_logic": 0,
            "wrapper": {
                "width": "",
                "class": "",
                "id": ""
            },
            "message": "This is for content pulled through to \/casestudies page only, and not a physical page.\r\nThe content pulled relies on the page ID, so please do not delete this page.",
            "new_lines": "wpautop",
            "esc_html": 0
        },
        {
            "key": "field_5c8a3d4df41ca",
            "label": "Title",
            "name": "casestudies_archive_title",
            "type": "text",
            "instructions": "",
            "required": 0,
            "conditional_logic": 0,
            "wrapper": {
                "width": "50",
                "class": "",
                "id": ""
            },
            "default_value": "",
            "placeholder": "",
            "prepend": "",
            "append": "",
            "maxlength": ""
        },
        {
            "key": "field_5c8a3d65f41cb",
            "label": "Intro",
            "name": "casestudies_archive_intro",
            "type": "textarea",
            "instructions": "",
            "required": 0,
            "conditional_logic": 0,
            "wrapper": {
                "width": "50",
                "class": "",
                "id": ""
            },
            "default_value": "",
            "placeholder": "",
            "maxlength": "",
            "rows": "",
            "new_lines": "br"
        }
    ],
    "location": [
        [
            {
                "param": "page_template",
                "operator": "==",
                "value": "archive-casestudies.php"
            }
        ]
    ],
    "menu_order": 0,
    "position": "normal",
    "style": "default",
    "label_placement": "top",
    "instruction_placement": "label",
    "hide_on_screen": [
        "the_content",
        "excerpt",
        "comments",
        "featured_image",
        "categories",
        "tags"
    ],
    "active": 1,
    "description": "",
    "modified": 1553682169
}