<svg xmlns="http://www.w3.org/2000/svg" width="18" height="18" viewBox="0 0 18 18">
    <g fill="none" fill-rule="nonzero">
        <path d="M0 0h18v18H0z"/>
        <path fill="#080707" d="M18 3.25c-2.942 2.449-4.217 3.537-5.363 3.537C10.807 6.787 9.877 4.031 9 1c-.874 3.021-1.808 5.786-3.64 5.786-1.135 0-2.376-1.053-5.36-3.536C2.49 8.514 2.25 13.969 2.25 16h13.5c0-1.289-.358-7.238 2.25-12.75zM5.36 8.286c1.721 0 2.84-1.23 3.64-2.82.798 1.591 1.917 2.821 3.637 2.821.841 0 1.641-.323 2.345-.782-.324 1.43-.51 2.79-.615 3.995H3.625a29.672 29.672 0 0 0-.606-3.993c.696.455 1.5.78 2.341.78zM3.755 14.5c-.002-.445-.012-.95-.035-1.5h10.549a36.822 36.822 0 0 0-.036 1.5H3.755z"/>
    </g>
</svg>
