<svg xmlns="http://www.w3.org/2000/svg" width="42" height="42" viewBox="0 0 42 42">
    <path fill="#000" fill-rule="nonzero" d="M16.757 21L4.737 8.98l4.242-4.243L21 16.757l12.02-12.02 4.243 4.242L25.243 21l12.02 12.02-4.242 4.243L21 25.243 8.98 37.263l-4.243-4.242z"/>
</svg>
