<svg width="22" height="22" viewBox="0 0 22 22" fill="none" xmlns="http://www.w3.org/2000/svg">
<circle cx="11" cy="11" r="11" fill="#17E189"/>
<path d="M12.8077 13.0111C12.8077 12.5914 12.6681 12.2379 12.3888 11.9505C12.1139 11.6632 11.6477 11.4032 10.9903 11.1705C10.0752 10.874 9.40709 10.4886 8.98604 10.0142C8.56928 9.53526 8.3609 8.9286 8.3609 8.19421C8.3609 7.44614 8.56498 6.83263 8.97315 6.35368C9.38561 5.87474 9.95059 5.58965 10.6681 5.49842V4H11.6284V5.50526C12.3502 5.61018 12.9108 5.93175 13.3104 6.47C13.7143 7.00825 13.9162 7.74491 13.9162 8.68H12.7304C12.7304 8.03684 12.5865 7.52596 12.2986 7.14737C12.0107 6.76877 11.6219 6.57947 11.1321 6.57947C10.6208 6.57947 10.2299 6.72088 9.95918 7.00368C9.68851 7.28193 9.55317 7.67193 9.55317 8.17368C9.55317 8.63895 9.69495 9.0107 9.97852 9.28895C10.2664 9.56263 10.7368 9.81351 11.3899 10.0416C12.0473 10.2651 12.5585 10.5137 12.9237 10.7874C13.2932 11.0565 13.5639 11.3712 13.7358 11.7316C13.9119 12.0919 14 12.5139 14 12.9974C14 13.7682 13.7809 14.3886 13.3426 14.8584C12.9087 15.3282 12.2986 15.6065 11.5124 15.6932V17H10.5585V15.6932C9.7594 15.6156 9.13212 15.3146 8.67669 14.79C8.22556 14.2609 8 13.5447 8 12.6416H9.19227C9.19227 13.2756 9.34909 13.7637 9.66273 14.1058C9.97637 14.4479 10.4211 14.6189 10.9968 14.6189C11.5596 14.6189 12.0021 14.4753 12.3244 14.1879C12.6466 13.9005 12.8077 13.5082 12.8077 13.0111Z" fill="white"/>
</svg>
