<svg width="22" height="22" viewBox="0 0 22 22" fill="none" xmlns="http://www.w3.org/2000/svg">
<circle cx="11" cy="11" r="11" fill="#17E189"/>
<path d="M12.2591 15.3529C12.662 15.3529 13.0521 15.314 13.4285 15.2352L13.4475 15.3885C13.0455 15.463 12.6446 15.5 12.2445 15.5C11.1404 15.5 10.3277 15.1773 9.74389 14.5788C9.16346 13.9741 8.82921 13.0919 8.80186 11.8639L8.79294 11.4632H8.80199V10.9632V9.95588V9.45588H8.78643L8.80163 9.05574C8.84713 7.85727 9.18897 6.99791 9.7695 6.41021C10.3549 5.81758 11.158 5.5 12.2372 5.5C12.5943 5.5 12.9972 5.54004 13.4477 5.62339L13.4275 5.78754C13.0382 5.70392 12.6461 5.66176 12.2518 5.66176C11.3402 5.66176 10.5723 5.95198 10.0237 6.58401L10.0234 6.58428C9.49364 7.19552 9.24538 8.03053 9.21394 9.0209L9.19756 9.53677H9.20637V9.95588V10.9632V11.375H9.19607L9.20648 11.8852C9.22738 12.9096 9.47409 13.7727 10.0135 14.4053C10.5655 15.0527 11.3387 15.3529 12.2591 15.3529Z" stroke="white"/>
</svg>
